\relax 
\providecommand\hyper@newdestlabel[2]{}
\providecommand\HyperFirstAtBeginDocument{\AtBeginDocument}
\HyperFirstAtBeginDocument{\ifx\hyper@anchor\@undefined
\global\let\oldcontentsline\contentsline
\gdef\contentsline#1#2#3#4{\oldcontentsline{#1}{#2}{#3}}
\global\let\oldnewlabel\newlabel
\gdef\newlabel#1#2{\newlabelxx{#1}#2}
\gdef\newlabelxx#1#2#3#4#5#6{\oldnewlabel{#1}{{#2}{#3}}}
\AtEndDocument{\ifx\hyper@anchor\@undefined
\let\contentsline\oldcontentsline
\let\newlabel\oldnewlabel
\fi}
\fi}
\global\let\hyper@last\relax 
\gdef\HyperFirstAtBeginDocument#1{#1}
\providecommand*\HyPL@Entry[1]{}
\providecommand\pbs@newkey[2]{}
\providecommand\pbs@seq@push@cx[2]{}
\providecommand\pbs@at@end@dvi@check{}
\pbs@at@end@dvi@check
\providecommand\@anim@newkey[2]{}
\pbs@newkey{pbs@last@page}{1}
\HyPL@Entry{0<</S/D>>}
\select@language{english}
\@writefile{toc}{\select@language{english}}
\@writefile{lof}{\select@language{english}}
\@writefile{lot}{\select@language{english}}
\pbs@newkey{pbs@last@page}{2}
\@writefile{toc}{\contentsline {section}{\numberline {1}Introduction}{2}{section.1}}
\@writefile{lof}{\contentsline {figure}{\numberline {1}{\ignorespaces SST energy in square lattice\relax }}{2}{figure.caption.2}}
\@writefile{lof}{\contentsline {figure}{\numberline {2}{\ignorespaces SST energy in hexagonal lattice\relax }}{2}{figure.caption.2}}
\pbs@newkey{pbs@last@page}{3}
\@writefile{toc}{\contentsline {section}{\numberline {2}Model Construction}{3}{section.2}}
\@writefile{lof}{\contentsline {figure}{\numberline {3}{\ignorespaces A hexagonal lattice with patch size 128\relax }}{3}{figure.caption.3}}
\@writefile{lof}{\contentsline {figure}{\numberline {4}{\ignorespaces Convolution Neural Network\relax }}{3}{figure.caption.4}}
\pbs@newkey{pbs@last@page}{4}
\@writefile{toc}{\contentsline {section}{\numberline {3}Model Training}{4}{section.3}}
\pbs@newkey{pbs@last@page}{5}
\@writefile{toc}{\contentsline {section}{\numberline {4}Model Evaluation}{5}{section.4}}
\@writefile{lof}{\contentsline {figure}{\numberline {5}{\ignorespaces Bubble\relax }}{5}{figure.caption.5}}
\@writefile{lof}{\contentsline {figure}{\numberline {6}{\ignorespaces Gaussian Bump\relax }}{5}{figure.caption.5}}
\pbs@newkey{pbs@last@page}{6}
\@writefile{lof}{\contentsline {figure}{\numberline {7}{\ignorespaces Bubble\relax }}{6}{figure.caption.6}}
\@writefile{lof}{\contentsline {figure}{\numberline {8}{\ignorespaces Gaussian Bump\relax }}{6}{figure.caption.6}}
\pbs@newkey{pbs@last@page}{7}
\@writefile{lof}{\contentsline {figure}{\numberline {9}{\ignorespaces test image\relax }}{7}{figure.caption.7}}
\@writefile{lof}{\contentsline {figure}{\numberline {10}{\ignorespaces estimation\relax }}{7}{figure.caption.8}}
\pbs@newkey{pbs@last@page}{8}
\@writefile{toc}{\contentsline {section}{\numberline {5}SST combined with CNN}{8}{section.5}}
\@writefile{lof}{\contentsline {figure}{\numberline {11}{\ignorespaces error with different amplitude\relax }}{8}{figure.caption.9}}
\pbs@newkey{pbs@last@page}{9}
\@writefile{lof}{\contentsline {figure}{\numberline {12}{\ignorespaces estimation result\relax }}{9}{figure.caption.10}}
\@writefile{toc}{\contentsline {section}{\numberline {6}Future Work}{9}{section.6}}
\pbs@newkey{pbs@last@page}{10}
