\select@language {english}
\contentsline {section}{\numberline {1}Introduction}{2}{section.1}
\contentsline {section}{\numberline {2}Model Construction}{3}{section.2}
\contentsline {section}{\numberline {3}Model Training}{4}{section.3}
\contentsline {section}{\numberline {4}Model Evaluation}{5}{section.4}
\contentsline {section}{\numberline {5}SST combined with CNN}{8}{section.5}
\contentsline {section}{\numberline {6}Future Work}{9}{section.6}
